Universitaet Karlsruhe / Rechenzentrum   +++ hc3 +++   JMS 2.3 / slurm 1.2.25
Job 420899 has been submitted at 20.02.2012/12:23:39 on hc3n996
Command: job_submit -t 30 -m 2800 -p 5 -c p mpirun ../../apfelpar-static-scatter -0.5 0.82 0.45 512 1000 50
Job 420899 started at 20.02.2012/12:23:40 on hc3n4
5 tasks running on 1 nodes shared: 5*hc3n4
================================================================================
5 -0.500000 0.820000 0.45 512 1000 50 12282.9 # PEs, z0_real, z0_img, a0, n, m_max, iterations time[us] for one iteration 
================================================================================
Job 420899 completed at 20.02.2012/12:23:43 (COMPLETED)
