Universitaet Karlsruhe / Rechenzentrum   +++ hc3 +++   JMS 2.3 / slurm 1.2.25
Job 415241 has been submitted at 08.02.2012/00:42:46 on hc3n996
Command: job_submit -t 30 -m 2800 -p 5 -c p mpirun ../../../apfelpar-masterworker -0.5 0.82 0.45 512 1000 50 512
Job 415241 started at 08.02.2012/03:15:45 on hc3n9
5 tasks running on 1 nodes shared: 5*hc3n9
================================================================================
5 -0.500000 0.820000 0.45 512 1000 50 12341.8 # PEs, z0_real, z0_img, a0, n, m_max, iterations time[us] for one iteration 
================================================================================
Job 415241 completed at 08.02.2012/03:15:50 (COMPLETED)
