Universitaet Karlsruhe / Rechenzentrum   +++ hc3 +++   JMS 2.3 / slurm 1.2.25
Job 415236 has been submitted at 08.02.2012/00:42:35 on hc3n996
Command: job_submit -t 30 -m 2800 -p 5 -c p mpirun ../../../apfelpar-masterworker -0.5 0.82 0.45 512 1000 50 16
Job 415236 started at 08.02.2012/00:42:42 on hc3n5
5 tasks running on 1 nodes shared: 5*hc3n5
================================================================================
5 -0.500000 0.820000 0.45 512 1000 50 19250.9 # PEs, z0_real, z0_img, a0, n, m_max, iterations time[us] for one iteration 
================================================================================
Job 415236 completed at 08.02.2012/00:42:46 (COMPLETED)
