8 0.223708 34.1042 # length[B], time[us], bandwidth [MiB/s] 19968 trials
16 0.096152 158.695 # length[B], time[us], bandwidth [MiB/s] 19936 trials
32 0.101069 301.949 # length[B], time[us], bandwidth [MiB/s] 19872 trials
64 0.221446 275.621 # length[B], time[us], bandwidth [MiB/s] 19747 trials
128 0.232354 525.363 # length[B], time[us], bandwidth [MiB/s] 19500 trials
256 0.298092 819.011 # length[B], time[us], bandwidth [MiB/s] 19025 trials
512 0.362411 1347.31 # length[B], time[us], bandwidth [MiB/s] 18142 trials
1024 0.476837 2048 # length[B], time[us], bandwidth [MiB/s] 16600 trials
2048 0.998508 1956.04 # length[B], time[us], bandwidth [MiB/s] 14188 trials
4096 1.53077 2551.83 # length[B], time[us], bandwidth [MiB/s] 10993 trials
8192 2.64141 2957.7 # length[B], time[us], bandwidth [MiB/s] 7580 trials
16384 5.3737 2907.68 # length[B], time[us], bandwidth [MiB/s] 4676 trials
32768 10.726 2913.47 # length[B], time[us], bandwidth [MiB/s] 2647 trials
65536 19.4948 3205.98 # length[B], time[us], bandwidth [MiB/s] 1417 trials
131072 48.3572 2584.93 # length[B], time[us], bandwidth [MiB/s] 734 trials
262144 92.8114 2693.63 # length[B], time[us], bandwidth [MiB/s] 374 trials
524288 200.119 2498.51 # length[B], time[us], bandwidth [MiB/s] 188 trials
1048576 404.676 2471.11 # length[B], time[us], bandwidth [MiB/s] 94 trials
2097152 805.602 2482.62 # length[B], time[us], bandwidth [MiB/s] 47 trials
4194304 1576.27 2537.64 # length[B], time[us], bandwidth [MiB/s] 23 trials
8388608 3076.62 2600.25 # length[B], time[us], bandwidth [MiB/s] 11 trials