Universitaet Karlsruhe / Rechenzentrum   +++ hc3 +++   JMS 2.3 / slurm 1.2.25
Job 393185 has been submitted at 17.11.2011/15:10:22 on hc3n996
Command: job_submit -t 30 -m 2000 -p 9 -c p mpirun cannon 120 4000
Job 393185 started at 17.11.2011/15:10:31 on hc3n245
9 tasks running on 2 nodes exclusive: 5*hc3n245 4*hc3n246
================================================================================
149.805 0.694521 # time[us] for one iteration, total time [s] 
================================================================================
Job 393185 completed at 17.11.2011/15:10:36 (COMPLETED)
