8 1.99889 3.81681 # length[B], time[us], bandwidth [MiB/s] 19968 trials, Comm. with PE: 7
16 2.00797 7.5991 # length[B], time[us], bandwidth [MiB/s] 19936 trials, Comm. with PE: 7
32 2.02656 15.0588 # length[B], time[us], bandwidth [MiB/s] 19872 trials, Comm. with PE: 7
64 2.02656 30.1176 # length[B], time[us], bandwidth [MiB/s] 19747 trials, Comm. with PE: 7
128 2.2242 54.8828 # length[B], time[us], bandwidth [MiB/s] 19500 trials, Comm. with PE: 7
256 3.48057 70.144 # length[B], time[us], bandwidth [MiB/s] 19025 trials, Comm. with PE: 7
512 3.52071 138.688 # length[B], time[us], bandwidth [MiB/s] 18142 trials, Comm. with PE: 7
1024 4.02861 242.407 # length[B], time[us], bandwidth [MiB/s] 16600 trials, Comm. with PE: 7
2048 5.46871 357.146 # length[B], time[us], bandwidth [MiB/s] 14188 trials, Comm. with PE: 7
4096 6.51826 599.278 # length[B], time[us], bandwidth [MiB/s] 10993 trials, Comm. with PE: 7
8192 8.51812 917.163 # length[B], time[us], bandwidth [MiB/s] 7580 trials, Comm. with PE: 7
16384 12.834 1217.47 # length[B], time[us], bandwidth [MiB/s] 4676 trials, Comm. with PE: 7
32768 18.9905 1645.56 # length[B], time[us], bandwidth [MiB/s] 2647 trials, Comm. with PE: 7
65536 28.9818 2156.52 # length[B], time[us], bandwidth [MiB/s] 1417 trials, Comm. with PE: 7
131072 48.995 2551.28 # length[B], time[us], bandwidth [MiB/s] 734 trials, Comm. with PE: 7
262144 89.1083 2805.57 # length[B], time[us], bandwidth [MiB/s] 374 trials, Comm. with PE: 7
524288 169.128 2956.35 # length[B], time[us], bandwidth [MiB/s] 188 trials, Comm. with PE: 7
1048576 330.105 3029.34 # length[B], time[us], bandwidth [MiB/s] 94 trials, Comm. with PE: 7
2097152 656.734 3045.38 # length[B], time[us], bandwidth [MiB/s] 47 trials, Comm. with PE: 7
4194304 1326.67 3015.07 # length[B], time[us], bandwidth [MiB/s] 23 trials, Comm. with PE: 7
8388608 2647.77 3021.41 # length[B], time[us], bandwidth [MiB/s] 11 trials, Comm. with PE: 7
