8 2.00086 3.81305 # length[B], time[us], bandwidth [MiB/s] 19968 trials, Comm. with PE: 5
16 2.01291 7.58045 # length[B], time[us], bandwidth [MiB/s] 19936 trials, Comm. with PE: 5
32 2.02656 15.0588 # length[B], time[us], bandwidth [MiB/s] 19872 trials, Comm. with PE: 5
64 2.02656 30.1176 # length[B], time[us], bandwidth [MiB/s] 19747 trials, Comm. with PE: 5
128 2.24067 54.4794 # length[B], time[us], bandwidth [MiB/s] 19500 trials, Comm. with PE: 5
256 3.47717 70.2125 # length[B], time[us], bandwidth [MiB/s] 19025 trials, Comm. with PE: 5
512 3.51895 138.758 # length[B], time[us], bandwidth [MiB/s] 18142 trials, Comm. with PE: 5
1024 4.02334 242.724 # length[B], time[us], bandwidth [MiB/s] 16600 trials, Comm. with PE: 5
2048 5.40169 361.577 # length[B], time[us], bandwidth [MiB/s] 14188 trials, Comm. with PE: 5
4096 6.50928 600.105 # length[B], time[us], bandwidth [MiB/s] 10993 trials, Comm. with PE: 5
8192 8.49695 919.448 # length[B], time[us], bandwidth [MiB/s] 7580 trials, Comm. with PE: 5
16384 12.609 1239.2 # length[B], time[us], bandwidth [MiB/s] 4676 trials, Comm. with PE: 5
32768 19.2975 1619.38 # length[B], time[us], bandwidth [MiB/s] 2647 trials, Comm. with PE: 5
65536 51.1065 1222.94 # length[B], time[us], bandwidth [MiB/s] 1417 trials, Comm. with PE: 5
131072 53.9678 2316.2 # length[B], time[us], bandwidth [MiB/s] 734 trials, Comm. with PE: 5
262144 109.296 2287.37 # length[B], time[us], bandwidth [MiB/s] 374 trials, Comm. with PE: 5
524288 241.169 2073.23 # length[B], time[us], bandwidth [MiB/s] 188 trials, Comm. with PE: 5
1048576 349.445 2861.68 # length[B], time[us], bandwidth [MiB/s] 94 trials, Comm. with PE: 5
2097152 659.17 3034.12 # length[B], time[us], bandwidth [MiB/s] 47 trials, Comm. with PE: 5
4194304 1332.15 3002.68 # length[B], time[us], bandwidth [MiB/s] 23 trials, Comm. with PE: 5
8388608 2686.25 2978.13 # length[B], time[us], bandwidth [MiB/s] 11 trials, Comm. with PE: 5
