Universitaet Karlsruhe / Rechenzentrum   +++ hc3 +++   JMS 2.3 / slurm 1.2.25
Job 409197 has been submitted at 24.01.2012/22:05:09 on hc3n996
Command: job_submit -d t -t 5 -m 800 -p 4 -c p mpirun ../../../samplesort 4194304 50 50
Job 409197 started at 24.01.2012/22:05:11 on hc3n184
4 tasks running on 1 nodes shared: 4*hc3n184
================================================================================
4194304 4 50 50 1.15866e+06 1.10248 # n, p, c, iterations, time[us] for one iteration, maxItemsPerPE/n 
================================================================================
Job 409197 completed at 24.01.2012/22:06:16 (COMPLETED)
