Universitaet Karlsruhe / Rechenzentrum   +++ hc3 +++   JMS 2.3 / slurm 1.2.25
Job 414537 has been submitted at 07.02.2012/14:47:05 on hc3n996
Command: job_submit -t 30 -m 2800 -p 5 -c p mpirun ../../../apfelpar-masterworker -1.5 -1.0 2 512 1000 50 64
Job 414537 started at 07.02.2012/16:25:33 on hc3n7
5 tasks running on 1 nodes shared: 5*hc3n7
================================================================================
5 -1.500000 -1.000000 2 512 1000 50 170992 # PEs, z0_real, z0_img, a0, n, m_max, iterations time[us] for one iteration 
================================================================================
Job 414537 completed at 07.02.2012/16:25:45 (COMPLETED)
