Universitaet Karlsruhe / Rechenzentrum   +++ hc3 +++   JMS 2.3 / slurm 1.2.25
Job 401724 has been submitted at 21.12.2011/12:47:28 on hc3n994
Command: job_submit -t 30 -m 4000 -p 1 -c p mpirun ../../sequential 8 10
Job 401724 started at 21.12.2011/12:47:30 on hc3n4
1 tasks running on 1 nodes shared: 1*hc3n4
================================================================================
8 0.834465 16.6355 0.0501616 # n, runtime[s], nlogn, c=runtime/nlogn 
================================================================================
Job 401724 completed at 21.12.2011/12:47:32 (COMPLETED)
