Universitaet Karlsruhe / Rechenzentrum   +++ hc3 +++   JMS 2.3 / slurm 1.2.25
Job 397792 has been submitted at 04.12.2011/19:08:12 on hc3n994
Command: job_submit -t 30 -m 4000 -p 1 -c p mpirun ../../vector 6500 1000
Job 397792 started at 04.12.2011/19:08:13 on hc3n1
1 tasks running on 1 nodes shared: 1*hc3n1
================================================================================
61586.9 65.1135 1371.94 # time[us] for one iteration, total time [s], MFLOPS 
================================================================================
Job 397792 completed at 04.12.2011/19:09:22 (COMPLETED)
