Universitaet Karlsruhe / Rechenzentrum   +++ hc3 +++   JMS 2.3 / slurm 1.2.25
Job 397795 has been submitted at 04.12.2011/19:11:48 on hc3n994
Command: job_submit -t 30 -m 4000 -p 1 -c p mpirun ../../vector 8000 1000
Job 397795 started at 04.12.2011/19:11:50 on hc3n1
1 tasks running on 1 nodes shared: 1*hc3n1
================================================================================
137985 127.629 927.581 # time[us] for one iteration, total time [s], MFLOPS 
================================================================================
Job 397795 completed at 04.12.2011/19:14:00 (COMPLETED)
