Universitaet Karlsruhe / Rechenzentrum   +++ hc3 +++   JMS 2.3 / slurm 1.2.25
Job 397784 has been submitted at 04.12.2011/19:07:12 on hc3n994
Command: job_submit -t 30 -m 4000 -p 1 -c p mpirun ../../vector 2500 1000
Job 397784 started at 04.12.2011/19:07:14 on hc3n1
1 tasks running on 1 nodes shared: 1*hc3n1
================================================================================
5328.64 5.84443 2345.34 # time[us] for one iteration, total time [s], MFLOPS 
================================================================================
Job 397784 completed at 04.12.2011/19:07:23 (COMPLETED)
