Universitaet Karlsruhe / Rechenzentrum   +++ hc3 +++   JMS 2.3 / slurm 1.2.25
Job 397780 has been submitted at 04.12.2011/19:06:57 on hc3n994
Command: job_submit -t 30 -m 4000 -p 1 -c p mpirun ../../vector 500 1000
Job 397780 started at 04.12.2011/19:06:58 on hc3n1
1 tasks running on 1 nodes shared: 1*hc3n1
================================================================================
98.4869 0.10647 5071.74 # time[us] for one iteration, total time [s], MFLOPS 
================================================================================
Job 397780 completed at 04.12.2011/19:07:01 (COMPLETED)
