Universitaet Karlsruhe / Rechenzentrum   +++ hc3 +++   JMS 2.3 / slurm 1.2.25
Job 414255 has been submitted at 07.02.2012/11:42:00 on hc3n996
Command: job_submit -t 30 -m 2800 -p 5 -c p mpirun ../../apfelpar-static-stripe -0.5 0.82 0.45 512 1000 50
Job 414255 started at 07.02.2012/12:23:07 on hc3n333
5 tasks running on 1 nodes shared: 5*hc3n333
================================================================================
5 -0.500000 0.820000 0.45 512 1000 50 37182.4 # PEs, z0_real, z0_img, a0, n, m_max, iterations time[us] for one iteration 
================================================================================
Job 414255 completed at 07.02.2012/12:23:13 (COMPLETED)
