Universitaet Karlsruhe / Rechenzentrum   +++ hc3 +++   JMS 2.3 / slurm 1.2.25
Job 396824 has been submitted at 01.12.2011/15:37:30 on hc3n994
Command: job_submit -t 30 -m 2000 -p 1 -c p mpirun ../../vector 10000 50
Job 396824 started at 01.12.2011/15:37:32 on hc3n11
1 tasks running on 1 nodes shared: 1*hc3n11
================================================================================
88112.2 4.3671 2269.72 # time[us] for one iteration, total time [s], MFLOPS 
================================================================================
Job 396824 completed at 01.12.2011/15:37:40 (COMPLETED)
