Universitaet Karlsruhe / Rechenzentrum   +++ hc3 +++   JMS 2.3 / slurm 1.2.25
Job 389435 has been submitted at 29.10.2011/14:12:00 on hc3n994
Command: job_submit -t 30 -m 200 -p 1 -c p mpirun ../capar4timing 256 37500 0 hc3n994:14.0
Job 389435 started at 29.10.2011/14:12:02 on hc3n1
1 tasks running on 1 nodes shared: 1*hc3n1
================================================================================
262.597 10.478 # time[us] for one iteration, time[s] total 
================================================================================
Job 389435 completed at 29.10.2011/14:12:15 (COMPLETED)
