Universitaet Karlsruhe / Rechenzentrum   +++ hc3 +++   JMS 2.3 / slurm 1.2.25
Job 397777 has been submitted at 04.12.2011/19:02:57 on hc3n994
Command: job_submit -t 30 -m 4000 -p 1 -c p mpirun ../../vector-sequential 9500 800
Job 397777 started at 04.12.2011/19:02:59 on hc3n1
1 tasks running on 1 nodes shared: 1*hc3n1
================================================================================
182754 139.807 987.613 # time[us] for one iteration, total time [s], MFLOPS 
================================================================================
Job 397777 completed at 04.12.2011/19:05:22 (COMPLETED)
