Universitaet Karlsruhe / Rechenzentrum   +++ hc3 +++   JMS 2.3 / slurm 1.2.25
Job 397768 has been submitted at 04.12.2011/18:55:17 on hc3n994
Command: job_submit -t 30 -m 4000 -p 1 -c p mpirun ../../vector-sequential 5000 1000
Job 397768 started at 04.12.2011/18:55:19 on hc3n1
1 tasks running on 1 nodes shared: 1*hc3n1
================================================================================
43267 45.3626 1155.5 # time[us] for one iteration, total time [s], MFLOPS 
================================================================================
Job 397768 completed at 04.12.2011/18:56:06 (COMPLETED)
