Universitaet Karlsruhe / Rechenzentrum   +++ hc3 +++   JMS 2.3 / slurm 1.2.25
Job 397767 has been submitted at 04.12.2011/18:55:06 on hc3n994
Command: job_submit -t 30 -m 4000 -p 1 -c p mpirun ../../vector-sequential 4500 1000
Job 397767 started at 04.12.2011/18:55:08 on hc3n1
1 tasks running on 1 nodes shared: 1*hc3n1
================================================================================
37481.6 38.5194 1080.41 # time[us] for one iteration, total time [s], MFLOPS 
================================================================================
Job 397767 completed at 04.12.2011/18:55:49 (COMPLETED)
