Universitaet Karlsruhe / Rechenzentrum   +++ hc3 +++   JMS 2.3 / slurm 1.2.25
Job 393240 has been submitted at 17.11.2011/16:45:02 on hc3n996
Command: job_submit -t 30 -m 2000 -p 16 -c p mpirun ../../cannon 1920 80
Job 393240 started at 17.11.2011/16:45:04 on hc3n31
16 tasks running on 2 nodes exclusive: 8*hc3n[31,33]
================================================================================
123822 9.93477 # time[us] for one iteration, total time [s] 
================================================================================
Job 393240 completed at 17.11.2011/16:45:22 (COMPLETED)
