Universitaet Karlsruhe / Rechenzentrum   +++ hc3 +++   JMS 2.3 / slurm 1.2.25
Job 390361 has been submitted at 03.11.2011/16:09:48 on hc3n996
Command: job_submit -t 30 -m 2000 -p 128 -c p mpirun ../capar-latency-hiding-256 256 38000 0 hc3n996:20.0
Job 390361 started at 04.11.2011/05:55:43 on hc3n64
128 tasks running on 16 nodes exclusive: 8*hc3n[64-65,123-132,291-294]
================================================================================
5.8605 0.233628 # time[us] for one iteration, time[s] total 
================================================================================
Job 390361 completed at 04.11.2011/05:55:47 (COMPLETED)
