Universitaet Karlsruhe / Rechenzentrum   +++ hc3 +++   JMS 2.3 / slurm 1.2.25
Job 389952 has been submitted at 02.11.2011/13:15:45 on hc3n996
Command: job_submit -t 30 -m 500 -p 32 -c p mpirun ../capar-latency-hiding-256 256 38000 0 hc3n996:45.0
Job 389952 started at 02.11.2011/18:08:54 on hc3n207
32 tasks running on 4 nodes exclusive: 8*hc3n[207,354-356]
================================================================================
10.9673 0.433853 # time[us] for one iteration, time[s] total 
================================================================================
Job 389952 completed at 02.11.2011/18:08:59 (COMPLETED)
