Universitaet Karlsruhe / Rechenzentrum   +++ hc3 +++   JMS 2.3 / slurm 1.2.25
Job 409202 has been submitted at 24.01.2012/22:06:11 on hc3n996
Command: job_submit -d t -t 5 -m 800 -p 16 -c p mpirun ../../../samplesort 1024 50 50
Job 409202 started at 24.01.2012/22:06:16 on hc3n163
16 tasks running on 2 nodes exclusive: 8*hc3n[163-164]
================================================================================
1024 16 50 50 677.531 1.13416 # n, p, c, iterations, time[us] for one iteration, maxItemsPerPE/n 
================================================================================
Job 409202 completed at 24.01.2012/22:06:18 (COMPLETED)
