Universitaet Karlsruhe / Rechenzentrum   +++ hc3 +++   JMS 2.3 / slurm 1.2.25
Job 409206 has been submitted at 24.01.2012/22:06:24 on hc3n996
Command: job_submit -d t -t 5 -m 800 -p 16 -c p mpirun ../../../samplesort 262144 50 50
Job 409206 started at 24.01.2012/22:06:26 on hc3n161
16 tasks running on 2 nodes exclusive: 8*hc3n[161-162]
================================================================================
262144 16 50 50 70242.6 1.13375 # n, p, c, iterations, time[us] for one iteration, maxItemsPerPE/n 
================================================================================
Job 409206 completed at 24.01.2012/22:06:32 (COMPLETED)
