Universitaet Karlsruhe / Rechenzentrum   +++ hc3 +++   JMS 2.3 / slurm 1.2.25
Job 397340 has been submitted at 03.12.2011/01:44:27 on hc3n996
Command: job_submit -t 30 -m 4000 -p 9 -c p mpirun ../../vector 1200 20000
Job 397340 started at 03.12.2011/01:44:29 on hc3n346
9 tasks running on 2 nodes exclusive: 5*hc3n346 4*hc3n347
================================================================================
80.2475 2.1197 35874 # time[us] for one iteration, total time [s], MFLOPS 
================================================================================
Job 397340 completed at 03.12.2011/01:44:34 (COMPLETED)
