Universitaet Karlsruhe / Rechenzentrum   +++ hc3 +++   JMS 2.3 / slurm 1.2.25
Job 397342 has been submitted at 03.12.2011/01:44:46 on hc3n996
Command: job_submit -t 30 -m 4000 -p 25 -c p mpirun ../../vector 1200 50000
Job 397342 started at 03.12.2011/01:44:48 on hc3n88
25 tasks running on 5 nodes exclusive: 5*hc3n[88,97,153,163,209]
================================================================================
42.7351 3.1909 67363.8 # time[us] for one iteration, total time [s], MFLOPS 
================================================================================
Job 397342 completed at 03.12.2011/01:44:54 (COMPLETED)
