Universitaet Karlsruhe / Rechenzentrum   +++ hc3 +++   JMS 2.3 / slurm 1.2.25
Job 397279 has been submitted at 02.12.2011/22:51:44 on hc3n994
Command: job_submit -t 30 -m 4000 -p 1 -c p mpirun ../../vector-sequential 6600 1000
Job 397279 started at 02.12.2011/22:51:45 on hc3n5
1 tasks running on 1 nodes shared: 1*hc3n5
================================================================================
70513.3 70.6209 1235.42 # time[us] for one iteration, total time [s], MFLOPS 
================================================================================
Job 397279 completed at 02.12.2011/22:52:59 (COMPLETED)
