Universitaet Karlsruhe / Rechenzentrum   +++ hc3 +++   JMS 2.3 / slurm 1.2.25
Job 397280 has been submitted at 02.12.2011/22:51:48 on hc3n994
Command: job_submit -t 30 -m 4000 -p 1 -c p mpirun ../../vector-sequential 8400 1000
Job 397280 started at 02.12.2011/22:51:49 on hc3n5
1 tasks running on 1 nodes shared: 1*hc3n5
================================================================================
97472.4 97.4259 1447.71 # time[us] for one iteration, total time [s], MFLOPS 
================================================================================
Job 397280 completed at 02.12.2011/22:53:30 (COMPLETED)
