Universitaet Karlsruhe / Rechenzentrum   +++ hc3 +++   JMS 2.3 / slurm 1.2.25
Job 397820 has been submitted at 04.12.2011/20:03:15 on hc3n994
Command: job_submit -t 30 -m 4000 -p 1 -c p mpirun ../../vector-sequential 6600 1000
Job 397820 started at 04.12.2011/20:03:16 on hc3n1
1 tasks running on 1 nodes shared: 1*hc3n1
================================================================================
38631.2 38.6315 2255 # time[us] for one iteration, total time [s], MFLOPS 
================================================================================
Job 397820 completed at 04.12.2011/20:03:58 (COMPLETED)
