Universitaet Karlsruhe / Rechenzentrum   +++ hc3 +++   JMS 2.3 / slurm 1.2.25
Job 409243 has been submitted at 24.01.2012/22:13:15 on hc3n996
Command: job_submit -d t -t 5 -m 800 -p 2 -c p mpirun ../../../quicksort 8388608 50
Job 409243 started at 24.01.2012/22:15:24 on hc3n184
2 tasks running on 1 nodes shared: 2*hc3n184
================================================================================
8388608 2 50 2.80204e+06 1.35381 # n, p, iterations, time[us] for one iteration, maxItemsPerPE/n  
================================================================================
Job 409243 completed at 24.01.2012/22:17:59 (COMPLETED)
