Universitaet Karlsruhe / Rechenzentrum   +++ hc3 +++   JMS 2.3 / slurm 1.2.25
Job 409254 has been submitted at 24.01.2012/22:19:31 on hc3n996
Command: job_submit -d t -t 5 -m 800 -p 2 -c p mpirun ../../../quicksort 524288 50
Job 409254 started at 24.01.2012/22:19:32 on hc3n184
2 tasks running on 1 nodes shared: 2*hc3n184
================================================================================
524288 2 50 145405 1.33387 # n, p, iterations, time[us] for one iteration, maxItemsPerPE/n  
================================================================================
Job 409254 completed at 24.01.2012/22:19:43 (COMPLETED)
