Universitaet Karlsruhe / Rechenzentrum   +++ hc3 +++   JMS 2.3 / slurm 1.2.25
Job 396905 has been submitted at 01.12.2011/16:39:35 on hc3n994
Command: job_submit -t 30 -m 4000 -p 1 -c p mpirun ../../vector-sequential 100 50
Job 396905 started at 01.12.2011/16:39:36 on hc3n11
1 tasks running on 1 nodes shared: 1*hc3n11
================================================================================
4.05312 0.0364981 4909.8 # time[us] for one iteration, total time [s], MFLOPS 
================================================================================
Job 396905 completed at 01.12.2011/16:39:39 (COMPLETED)
