Universitaet Karlsruhe / Rechenzentrum   +++ hc3 +++   JMS 2.3 / slurm 1.2.25
Job 396940 has been submitted at 01.12.2011/17:16:17 on hc3n994
Command: job_submit -t 30 -m 4000 -p 9 -c p mpirun ../../vector 12000 1000
Job 396940 started at 01.12.2011/17:16:18 on hc3n181
9 tasks running on 2 nodes exclusive: 5*hc3n181 4*hc3n182
================================================================================
25194.4 25.4693 11430.6 # time[us] for one iteration, total time [s], MFLOPS 
================================================================================
Job 396940 completed at 01.12.2011/17:16:48 (COMPLETED)
