Universitaet Karlsruhe / Rechenzentrum   +++ hc3 +++   JMS 2.3 / slurm 1.2.25
Job 397839 has been submitted at 04.12.2011/20:24:32 on hc3n996
Command: job_submit -t 30 -m 4000 -p 1 -c p mpirun ../../vector 4200 1000
Job 397839 started at 04.12.2011/20:24:33 on hc3n1
1 tasks running on 1 nodes shared: 1*hc3n1
================================================================================
17216.5 17.5977 2048.95 # time[us] for one iteration, total time [s], MFLOPS 
================================================================================
Job 397839 completed at 04.12.2011/20:24:54 (COMPLETED)
