Universitaet Karlsruhe / Rechenzentrum   +++ hc3 +++   JMS 2.3 / slurm 1.2.25
Job 397840 has been submitted at 04.12.2011/20:25:01 on hc3n996
Command: job_submit -t 30 -m 4000 -p 1 -c p mpirun ../../vector 5400 1000
Job 397840 started at 04.12.2011/20:25:02 on hc3n1
1 tasks running on 1 nodes shared: 1*hc3n1
================================================================================
28079.9 28.2142 2076.74 # time[us] for one iteration, total time [s], MFLOPS 
================================================================================
Job 397840 completed at 04.12.2011/20:25:33 (COMPLETED)
