Universitaet Karlsruhe / Rechenzentrum   +++ hc3 +++   JMS 2.3 / slurm 1.2.25
Job 397752 has been submitted at 04.12.2011/18:33:20 on hc3n994
Command: job_submit -t 30 -m 4000 -p 4 -c p mpirun ../../vector 5400 1000
Job 397752 started at 04.12.2011/18:33:22 on hc3n1
4 tasks running on 1 nodes shared: 4*hc3n1
================================================================================
14367.8 14.3906 4058.71 # time[us] for one iteration, total time [s], MFLOPS 
================================================================================
Job 397752 completed at 04.12.2011/18:33:39 (COMPLETED)
