Universitaet Karlsruhe / Rechenzentrum   +++ hc3 +++   JMS 2.3 / slurm 1.2.25
Job 409222 has been submitted at 24.01.2012/22:07:37 on hc3n996
Command: job_submit -d t -t 5 -m 800 -p 16 -c p mpirun ../../../quicksort 262144 50
Job 409222 started at 24.01.2012/22:07:44 on hc3n163
16 tasks running on 2 nodes exclusive: 8*hc3n[163-164]
================================================================================
262144 16 50 126954 2.03184 # n, p, iterations, time[us] for one iteration, maxItemsPerPE/n  
================================================================================
Job 409222 completed at 24.01.2012/22:07:53 (COMPLETED)
