Universitaet Karlsruhe / Rechenzentrum   +++ hc3 +++   JMS 2.3 / slurm 1.2.25
Job 395237 has been submitted at 24.11.2011/17:49:42 on hc3n994
Command: job_submit -t 30 -m 2000 -p 1 -c p mpirun sequential-library 1000 10
Job 395237 started at 24.11.2011/17:49:43 on hc3n12
1 tasks running on 1 nodes shared: 1*hc3n12
================================================================================
229427 # time for one iteration [us]
================================================================================
Job 395237 completed at 24.11.2011/17:49:48 (COMPLETED)
