Universitaet Karlsruhe / Rechenzentrum   +++ hc3 +++   JMS 2.3 / slurm 1.2.25
Job 397248 has been submitted at 02.12.2011/20:19:42 on hc3n994
Command: job_submit -t 30 -m 4000 -p 1 -c p mpirun ../../vector 1920 1000
Job 397248 started at 02.12.2011/20:19:43 on hc3n5
1 tasks running on 1 nodes shared: 1*hc3n5
================================================================================
4222.76 4.42783 1745.51 # time[us] for one iteration, total time [s], MFLOPS 
================================================================================
Job 397248 completed at 02.12.2011/20:19:50 (COMPLETED)
