Universitaet Karlsruhe / Rechenzentrum   +++ hc3 +++   JMS 2.3 / slurm 1.2.25
Job 409189 has been submitted at 24.01.2012/22:04:27 on hc3n996
Command: job_submit -d t -t 5 -m 800 -p 16 -c p mpirun ../../../samplesort 4096 50 50
Job 409189 started at 24.01.2012/22:04:29 on hc3n161
16 tasks running on 2 nodes exclusive: 8*hc3n[161-162]
================================================================================
4096 16 50 50 1294.25 1.12404 # n, p, c, iterations, time[us] for one iteration, maxItemsPerPE/n 
================================================================================
Job 409189 completed at 24.01.2012/22:04:32 (COMPLETED)
