Universitaet Karlsruhe / Rechenzentrum   +++ hc3 +++   JMS 2.3 / slurm 1.2.25
Job 409138 has been submitted at 24.01.2012/21:20:47 on hc3n994
Command: job_submit -t 5 -m 800 -p 64 -c p mpirun ../../../samplesort 1024 50 50
Job 409138 started at 24.01.2012/21:20:49 on hc3n304
64 tasks running on 8 nodes exclusive: 8*hc3n[304-311]
================================================================================
1024 64 50 50 1.53099e+06 1.13954 # n, p, c, iterations, time[us] for one iteration, maxItemsPerPE/n 
================================================================================
Job 409138 completed at 24.01.2012/21:22:11 (COMPLETED)
