Universitaet Karlsruhe / Rechenzentrum   +++ hc3 +++   JMS 2.3 / slurm 1.2.25
Job 409238 has been submitted at 24.01.2012/22:09:56 on hc3n996
Command: job_submit -d t -t 5 -m 800 -p 32 -c p mpirun ../../../quicksort 2048 50
Job 409238 started at 24.01.2012/22:09:58 on hc3n198
32 tasks running on 4 nodes exclusive: 8*hc3n[198-201]
================================================================================
2048 32 50 1701 2.16756 # n, p, iterations, time[us] for one iteration, maxItemsPerPE/n  
================================================================================
Job 409238 completed at 24.01.2012/22:10:01 (COMPLETED)
