Universitaet Karlsruhe / Rechenzentrum   +++ hc3 +++   JMS 2.3 / slurm 1.2.25
Job 409233 has been submitted at 24.01.2012/22:09:40 on hc3n996
Command: job_submit -d t -t 5 -m 800 -p 1 -c p mpirun ../../../quicksort 65536 50
Job 409233 started at 24.01.2012/22:09:42 on hc3n45
1 tasks running on 1 nodes shared: 1*hc3n45
================================================================================
65536 1 50 10679.7 1 # n, p, iterations, time[us] for one iteration, maxItemsPerPE/n  
================================================================================
Job 409233 completed at 24.01.2012/22:09:44 (COMPLETED)
